Manipulating the Model • BertopicR
…
For larger topics we might need to use more sophisticated language
analysis tools, but since these topics are relatively small, we can just
examine exemplars.

data %>%
  filter(topic %in% c(2,14)) %>%
  select(sentence, topic)
#> # A tibble: 26 × 2
#>    sentence                                     topic
#>    <chr>                                        <int>
#>  1 a wisp of cloud hung in the blue air.            2
#>  2 the bill was paid every third week.             14
#>  3 the pennant waved when the wind blew.            2
#>  4 those thistles bend in a high wind.              2
#>  5 the tree top waved in a graceful way.            2
#>  6 we tried to replace the coin but failed.        14
#>  7 a blue crane is a tall wading bird.              2
#>  8 the fly made its way along the wall.             2
#>  9 the ancient coin was quite dull and worn.       14
#> 10 the rush for funds reached its peak tuesday.    14
#> # ℹ 16 more rows
…
Once you have settled on a new list of topics that you are happy
with, we can update the dataframe we have been keeping. For example, if
after looking at the data we decided that the Tokenset Similarity method
was the most appropriate:

data <- data %>%
  mutate(new_topics = outliers_ts_sim$new_topics)

data %>%
  filter(merged_topics == -1) %>%
  select(merged_topics, new_topics)
#> # A tibble: 221 × 2
#>    merged_topics new_topics
#>            <int>      <dbl>
#>  1            -1         -1
#>  2            -1         57
#>  3            -1         56
#>  4            -1         -1
#>  5            -1          4
#>  6            -1         30
#>  7            -1         49
#>  8            -1         33
#>  9            -1          6
#> 10            -1         29
#> # ℹ 211 more rows
…
